Title;Filename
Lando;5713d1471a504.jpeg
;5713d13c7983b.jpeg
Culo;5713d00cd5a4c.png
;5713cfd653ab5.png
;5713cfa458a7d.png
;5713cf4238f01.jpeg
;5713ce27e729d.jpeg
;5713c9d880893.jpeg
;5713c5c116f17.jpeg
;C:\wamp64\tmp\php29B4.tmp
